[{"line":2,"elements":[{"line":10,"name":"get status response","description":"","id":"get-status-response","type":"scenario","keyword":"Scenario","steps":[{"name":"url urlServeur","result":{"duration":54900,"status":"passed"},"match":{"location":"karate","arguments":[]},"keyword":"Given","line":11},{"name":"request  data :[{'first_name' : 'George'}]","result":{"duration":4802400,"status":"passed"},"match":{"location":"karate","arguments":[]},"keyword":"And","line":12},{"name":"method get","result":{"duration":333734900,"status":"passed"},"match":{"location":"karate","arguments":[]},"keyword":"When","line":13,"doc_string":{"content_type":"","value":"14:51:28.840 request:\n1 > GET https:\/\/reqres.in\/api\/users?page=1\n1 > Accept-Encoding: gzip,deflate\n1 > Connection: Keep-Alive\n1 > Host: reqres.in\n1 > User-Agent: Apache-HttpClient\/4.5.12 (Java\/11.0.16.1)\n\n14:51:29.065 response time in milliseconds: 217,76\n1 < 200\n1 < Access-Control-Allow-Origin: *\n1 < Age: 4639\n1 < CF-Cache-Status: HIT\n1 < CF-RAY: 755e875add159996-CDG\n1 < Cache-Control: max-age=14400\n1 < Connection: keep-alive\n1 < Content-Type: application\/json; charset=utf-8\n1 < Date: Thu, 06 Oct 2022 12:51:29 GMT\n1 < Etag: W\/\"3e4-2RLXvr5wTg9YQ6aH95CkYoFNuO8\"\n1 < NEL: {\"success_fraction\":0,\"report_to\":\"cf-nel\",\"max_age\":604800}\n1 < Report-To: {\"endpoints\":[{\"url\":\"https:\\\/\\\/a.nel.cloudflare.com\\\/report\\\/v3?s=UhzY5%2BOQpf%2BosPUG4u8qn0IB2MrjrxxSYv6i%2BrfrOmrjAPV3bzVWMNRtsHdYXu7MGUGNcpmEIgRmugf7K2b9R1bHvL7NymrFkOi1LKcNeLB12Nvm3I6%2Bqm%2B9CQ%3D%3D\"}],\"group\":\"cf-nel\",\"max_age\":604800}\n1 < Server: cloudflare\n1 < Transfer-Encoding: chunked\n1 < Vary: Accept-Encoding\n1 < Via: 1.1 vegur\n1 < X-Powered-By: Express\n{\"page\":1,\"per_page\":6,\"total\":12,\"total_pages\":2,\"data\":[{\"id\":1,\"email\":\"george.bluth@reqres.in\",\"first_name\":\"George\",\"last_name\":\"Bluth\",\"avatar\":\"https:\/\/reqres.in\/img\/faces\/1-image.jpg\"},{\"id\":2,\"email\":\"janet.weaver@reqres.in\",\"first_name\":\"Janet\",\"last_name\":\"Weaver\",\"avatar\":\"https:\/\/reqres.in\/img\/faces\/2-image.jpg\"},{\"id\":3,\"email\":\"emma.wong@reqres.in\",\"first_name\":\"Emma\",\"last_name\":\"Wong\",\"avatar\":\"https:\/\/reqres.in\/img\/faces\/3-image.jpg\"},{\"id\":4,\"email\":\"eve.holt@reqres.in\",\"first_name\":\"Eve\",\"last_name\":\"Holt\",\"avatar\":\"https:\/\/reqres.in\/img\/faces\/4-image.jpg\"},{\"id\":5,\"email\":\"charles.morris@reqres.in\",\"first_name\":\"Charles\",\"last_name\":\"Morris\",\"avatar\":\"https:\/\/reqres.in\/img\/faces\/5-image.jpg\"},{\"id\":6,\"email\":\"tracey.ramos@reqres.in\",\"first_name\":\"Tracey\",\"last_name\":\"Ramos\",\"avatar\":\"https:\/\/reqres.in\/img\/faces\/6-image.jpg\"}],\"support\":{\"url\":\"https:\/\/reqres.in\/#support-heading\",\"text\":\"To keep ReqRes free, contributions towards server costs are appreciated!\"}}","line":13}},{"name":"status 200","result":{"duration":30200,"status":"passed"},"match":{"location":"karate","arguments":[]},"keyword":"Then","line":14},{"name":"print response","result":{"duration":931500,"status":"passed"},"match":{"location":"karate","arguments":[]},"keyword":"And","line":15,"doc_string":{"content_type":"","value":"14:51:29.072 [print] {\n  \"per_page\": 6,\n  \"total\": 12,\n  \"data\": [\n    {\n      \"last_name\": \"Bluth\",\n      \"id\": 1,\n      \"avatar\": \"https:\/\/reqres.in\/img\/faces\/1-image.jpg\",\n      \"first_name\": \"George\",\n      \"email\": \"george.bluth@reqres.in\"\n    },\n    {\n      \"last_name\": \"Weaver\",\n      \"id\": 2,\n      \"avatar\": \"https:\/\/reqres.in\/img\/faces\/2-image.jpg\",\n      \"first_name\": \"Janet\",\n      \"email\": \"janet.weaver@reqres.in\"\n    },\n    {\n      \"last_name\": \"Wong\",\n      \"id\": 3,\n      \"avatar\": \"https:\/\/reqres.in\/img\/faces\/3-image.jpg\",\n      \"first_name\": \"Emma\",\n      \"email\": \"emma.wong@reqres.in\"\n    },\n    {\n      \"last_name\": \"Holt\",\n      \"id\": 4,\n      \"avatar\": \"https:\/\/reqres.in\/img\/faces\/4-image.jpg\",\n      \"first_name\": \"Eve\",\n      \"email\": \"eve.holt@reqres.in\"\n    },\n    {\n      \"last_name\": \"Morris\",\n      \"id\": 5,\n      \"avatar\": \"https:\/\/reqres.in\/img\/faces\/5-image.jpg\",\n      \"first_name\": \"Charles\",\n      \"email\": \"charles.morris@reqres.in\"\n    },\n    {\n      \"last_name\": \"Ramos\",\n      \"id\": 6,\n      \"avatar\": \"https:\/\/reqres.in\/img\/faces\/6-image.jpg\",\n      \"first_name\": \"Tracey\",\n      \"email\": \"tracey.ramos@reqres.in\"\n    }\n  ],\n  \"page\": 1,\n  \"total_pages\": 2,\n  \"support\": {\n    \"text\": \"To keep ReqRes free, contributions towards server costs are appreciated!\",\n    \"url\": \"https:\/\/reqres.in\/#support-heading\"\n  }\n}","line":15}}],"tags":[{"name":"@test02","line":9}]}],"name":"features\/firstTest.feature","description":"first test API","id":"first-test-api","keyword":"Feature","uri":"features\/firstTest.feature","tags":[{"name":"@premier","line":1}]}]